…
# Project Part 2

##### Vishwas Shivakumar

##### 04 / 12 / 2022

## Importing the dataset

Filtering the dataset for one city and exploring the data here we have selected Chicago

```
## # A tsibble: 165 x 2 [1M]
## date Price
## <mth> <dbl>
## 1 2008 Apr 250586.
## 2 2008 May 252253.
## 3 2008 Jun 255582.
## 4 2008 Jul 259080.
## 5 2008 Aug 260747.
## 6 2008 Sep 256749.
## 7 2008 Oct 249421.
## 8 2008 Nov 240029.
## 9 2008 Dec 234702.
## 10 2009 Jan 229043.
## # ... with 155 more rows
```
…
